Start-Date: 2023-12-22  01:46:11
Commandline: apt upgrade
Upgrade: mx-packageinstaller:amd64 (23.12, 23.12.01)
End-Date: 2023-12-22  01:46:13

Start-Date: 2023-12-22  01:47:06
Commandline: apt install uim-chewing uim-pinyin
Install: libchewing3-data:amd64 (0.5.1-4, automatic), uim-pinyin:amd64 (1:1.8.8-9), uim-chewing:amd64 (0.1.0-6), libchewing3:amd64 (0.5.1-4, automatic)
End-Date: 2023-12-22  01:47:09
