
Start-Date: 2023-12-22  08:04:56
Commandline: /usr/sbin/synaptic
Requested-By: demo (1000)
Remove: linux-headers-6.1.0-10-amd64:amd64 (6.1.38-2), linux-image-6.1.0-10-amd64:amd64 (6.1.38-2), linux-headers-6.1.0-10-common:amd64 (6.1.38-2)
End-Date: 2023-12-22  08:05:09
